<?xml version="1.0" encoding="utf-8"?>
<!-- Generator: Adobe Illustrator 24.3.0, SVG Export Plug-In . SVG Version: 6.00 Build 0)  -->
<svg version="1.1" id="Calque_1" xmlns="http://www.w3.org/2000/svg" xmlns:xlink="http://www.w3.org/1999/xlink" x="0px" y="0px"
	 viewBox="0 0 311.6 363.9" style="enable-background:new 0 0 311.6 363.9;" xml:space="preserve">
<style type="text/css">
	.st0{fill-rule:evenodd;clip-rule:evenodd;fill:#E2DACD;}
	.st1{fill:none;}
	.st2{fill:#C6B89B;}
	.st3{fill:#B2A287;}
	.st4{fill:#D88831;}
	.st5{fill:#EDB26C;}
	.st6{fill:#E09637;}
	.st7{fill-rule:evenodd;clip-rule:evenodd;fill:#FFF4DB;}
	.st8{clip-path:url(#SVGID_2_);}
	.st9{fill:#FFFFFF;}
	.st10{fill:none;stroke:#FFFFFF;stroke-width:10.4;stroke-miterlimit:10;}
	.st11{enable-background:new    ;}
	.st12{fill:#B57A20;}
	.st13{clip-path:url(#SVGID_4_);enable-background:new    ;}
	.st14{fill:#BA7E1F;}
	.st15{clip-path:url(#SVGID_6_);enable-background:new    ;}
	.st16{fill:#CA8825;}
	.st17{fill:#CD8B25;}
	.st18{fill:#C58522;}
	.st19{fill:#C78623;}
	.st20{clip-path:url(#SVGID_8_);enable-background:new    ;}
	.st21{fill:#C18221;}
	.st22{fill:#BD7F20;}
	.st23{fill:#F5A42A;}
	.st24{fill:#B87B1F;}
	.st25{opacity:0.5;}
	.st26{fill:url(#SVGID_9_);}
	.st27{fill:url(#SVGID_10_);}
	.st28{fill:none;stroke:#EBDAB2;stroke-width:3;stroke-miterlimit:10;}
	.st29{fill-rule:evenodd;clip-rule:evenodd;fill:url(#SVGID_11_);}
	.st30{fill-rule:evenodd;clip-rule:evenodd;fill:url(#SVGID_12_);}
	.st31{fill-rule:evenodd;clip-rule:evenodd;fill:#EF7F82;}
	.st32{fill-rule:evenodd;clip-rule:evenodd;fill:url(#SVGID_13_);}
	.st33{fill-rule:evenodd;clip-rule:evenodd;fill:url(#SVGID_14_);}
	.st34{fill-rule:evenodd;clip-rule:evenodd;fill:url(#SVGID_15_);}
	.st35{opacity:0.3;fill-rule:evenodd;clip-rule:evenodd;fill:url(#SVGID_16_);}
	.st36{fill-rule:evenodd;clip-rule:evenodd;fill:url(#SVGID_17_);}
	.st37{fill-rule:evenodd;clip-rule:evenodd;fill:url(#SVGID_18_);}
	.st38{fill-rule:evenodd;clip-rule:evenodd;fill:url(#SVGID_19_);}
	.st39{fill-rule:evenodd;clip-rule:evenodd;fill:url(#SVGID_20_);}
	.st40{opacity:0.3;fill-rule:evenodd;clip-rule:evenodd;fill:url(#SVGID_21_);}
	.st41{opacity:0.3;fill-rule:evenodd;clip-rule:evenodd;fill:url(#SVGID_22_);}
	.st42{fill-rule:evenodd;clip-rule:evenodd;fill:url(#SVGID_23_);}
	.st43{opacity:0.3;fill-rule:evenodd;clip-rule:evenodd;fill:url(#SVGID_24_);}
	.st44{opacity:0.3;fill-rule:evenodd;clip-rule:evenodd;fill:url(#SVGID_25_);}
	.st45{opacity:0.5;fill-rule:evenodd;clip-rule:evenodd;fill:url(#SVGID_26_);}
	.st46{fill-rule:evenodd;clip-rule:evenodd;fill:#CF5971;}
	.st47{fill-rule:evenodd;clip-rule:evenodd;fill:url(#SVGID_27_);}
	.st48{fill-rule:evenodd;clip-rule:evenodd;fill:#37193E;}
	.st49{fill-rule:evenodd;clip-rule:evenodd;fill:#D9CCDA;}
	.st50{fill-rule:evenodd;clip-rule:evenodd;fill:#FFFFFF;}
	.st51{fill-rule:evenodd;clip-rule:evenodd;fill:#E5BDDB;}
	.st52{fill-rule:evenodd;clip-rule:evenodd;fill:#4B3052;}
	.st53{fill-rule:evenodd;clip-rule:evenodd;fill:url(#SVGID_28_);}
	.st54{fill-rule:evenodd;clip-rule:evenodd;fill:url(#SVGID_29_);}
	.st55{fill-rule:evenodd;clip-rule:evenodd;fill:url(#SVGID_30_);}
	.st56{opacity:0.7;fill-rule:evenodd;clip-rule:evenodd;fill:#FFFFFF;}
	.st57{fill-rule:evenodd;clip-rule:evenodd;fill:url(#SVGID_31_);}
	.st58{fill-rule:evenodd;clip-rule:evenodd;fill:#5F374D;}
	.st59{fill:#9D9D9C;}
	.st60{fill:#EDEDED;}
	.st61{fill:#B2B2B2;}
	.st62{fill:#5E5E5E;}
	.st63{fill:#174365;}
	.st64{opacity:0.5;fill:#FFFFFF;}
	.st65{fill:#706F6F;}
	.st66{fill:#E5E9E2;}
	.st67{fill:#F39200;}
	.st68{fill:none;stroke:#BE1622;stroke-width:8;stroke-linecap:round;stroke-linejoin:round;stroke-miterlimit:10;}
	.st69{fill:#BE1622;}
	.st70{clip-path:url(#SVGID_33_);}
	.st71{clip-path:url(#SVGID_35_);enable-background:new    ;}
	.st72{clip-path:url(#SVGID_37_);enable-background:new    ;}
	.st73{clip-path:url(#SVGID_39_);enable-background:new    ;}
	.st74{fill:url(#SVGID_40_);}
	.st75{fill:url(#SVGID_41_);}
	.st76{fill-rule:evenodd;clip-rule:evenodd;fill:url(#SVGID_42_);}
	.st77{fill-rule:evenodd;clip-rule:evenodd;fill:url(#SVGID_43_);}
	.st78{opacity:0.5;fill-rule:evenodd;clip-rule:evenodd;fill:url(#SVGID_44_);}
	.st79{fill-rule:evenodd;clip-rule:evenodd;fill:url(#SVGID_45_);}
	.st80{fill-rule:evenodd;clip-rule:evenodd;fill:url(#SVGID_46_);}
	.st81{fill-rule:evenodd;clip-rule:evenodd;fill:#231120;}
	.st82{fill-rule:evenodd;clip-rule:evenodd;fill:url(#SVGID_47_);}
	.st83{fill-rule:evenodd;clip-rule:evenodd;fill:url(#SVGID_48_);}
	.st84{fill-rule:evenodd;clip-rule:evenodd;fill:url(#SVGID_49_);}
	.st85{fill-rule:evenodd;clip-rule:evenodd;fill:url(#SVGID_50_);}
	.st86{opacity:0.3;fill-rule:evenodd;clip-rule:evenodd;fill:url(#SVGID_51_);}
	.st87{opacity:0.3;fill-rule:evenodd;clip-rule:evenodd;fill:url(#SVGID_52_);}
	.st88{opacity:0.3;fill-rule:evenodd;clip-rule:evenodd;fill:url(#SVGID_53_);}
	.st89{opacity:0.3;fill-rule:evenodd;clip-rule:evenodd;fill:url(#SVGID_54_);}
	.st90{opacity:0.3;fill-rule:evenodd;clip-rule:evenodd;fill:url(#SVGID_55_);}
	.st91{opacity:0.3;fill-rule:evenodd;clip-rule:evenodd;fill:url(#SVGID_56_);}
	.st92{opacity:0.3;fill-rule:evenodd;clip-rule:evenodd;fill:url(#SVGID_57_);}
	.st93{opacity:0.3;fill-rule:evenodd;clip-rule:evenodd;fill:url(#SVGID_58_);}
	.st94{fill-rule:evenodd;clip-rule:evenodd;fill:url(#SVGID_59_);}
	.st95{opacity:0.5;fill-rule:evenodd;clip-rule:evenodd;fill:url(#SVGID_60_);}
	.st96{fill-rule:evenodd;clip-rule:evenodd;fill:url(#SVGID_61_);}
	.st97{opacity:0.3;fill-rule:evenodd;clip-rule:evenodd;fill:url(#SVGID_62_);}
	.st98{fill-rule:evenodd;clip-rule:evenodd;fill:url(#SVGID_63_);}
	.st99{fill-rule:evenodd;clip-rule:evenodd;fill:url(#SVGID_64_);}
	.st100{opacity:0.5;fill-rule:evenodd;clip-rule:evenodd;fill:url(#SVGID_65_);}
	.st101{fill-rule:evenodd;clip-rule:evenodd;fill:url(#SVGID_66_);}
	.st102{fill-rule:evenodd;clip-rule:evenodd;fill:url(#SVGID_67_);}
	.st103{fill-rule:evenodd;clip-rule:evenodd;fill:url(#SVGID_68_);}
	.st104{fill-rule:evenodd;clip-rule:evenodd;fill:url(#SVGID_69_);}
	.st105{fill-rule:evenodd;clip-rule:evenodd;fill:url(#SVGID_70_);}
	.st106{clip-path:url(#SVGID_72_);enable-background:new    ;}
	.st107{clip-path:url(#SVGID_74_);enable-background:new    ;}
	.st108{clip-path:url(#SVGID_76_);enable-background:new    ;}
	.st109{fill:url(#SVGID_77_);}
	.st110{fill:url(#SVGID_78_);}
	.st111{fill:#CBBBA0;}
	.st112{fill:none;stroke:#CBBBA0;stroke-linecap:round;stroke-miterlimit:10;}
	.st113{fill:none;stroke:#CBBBA0;stroke-linecap:round;stroke-miterlimit:10;stroke-dasharray:4.0294,4.0294;}
	.st114{fill:none;stroke:#CBBBA0;stroke-width:2;stroke-linecap:round;stroke-miterlimit:10;}
	.st115{fill:none;stroke:#CBBBA0;stroke-width:2;stroke-linecap:round;stroke-miterlimit:10;stroke-dasharray:3.9324,15.7297;}
	.st116{opacity:0.57;}
	.st117{fill:none;stroke:#CBBBA0;stroke-width:2;stroke-linecap:round;stroke-miterlimit:10;stroke-dasharray:1.9717,7.8869;}
	.st118{fill:none;stroke:#CBBBA0;stroke-width:6;stroke-linecap:round;stroke-miterlimit:10;}
	.st119{fill:none;stroke:#CBBBA0;stroke-width:10;stroke-linecap:round;stroke-miterlimit:10;}
	.st120{fill:none;stroke:url(#SVGID_79_);stroke-width:10;stroke-linecap:round;stroke-miterlimit:10;}
	.st121{fill:#DDD4C4;stroke:#A48A7B;stroke-width:3;stroke-miterlimit:10;}
	.st122{fill-rule:evenodd;clip-rule:evenodd;fill:url(#SVGID_80_);}
	.st123{opacity:0.3;fill-rule:evenodd;clip-rule:evenodd;fill:url(#SVGID_81_);}
	.st124{fill-rule:evenodd;clip-rule:evenodd;fill:url(#SVGID_82_);}
	.st125{fill-rule:evenodd;clip-rule:evenodd;fill:url(#SVGID_83_);}
	.st126{fill-rule:evenodd;clip-rule:evenodd;fill:url(#SVGID_84_);}
	.st127{fill-rule:evenodd;clip-rule:evenodd;fill:url(#SVGID_85_);}
	.st128{fill:#F9B233;stroke:url(#SVGID_86_);stroke-width:4;stroke-miterlimit:10;}
	.st129{fill-rule:evenodd;clip-rule:evenodd;fill:url(#SVGID_87_);}
	.st130{fill-rule:evenodd;clip-rule:evenodd;fill:url(#SVGID_88_);}
	.st131{fill-rule:evenodd;clip-rule:evenodd;fill:url(#SVGID_89_);}
	.st132{fill:none;stroke:url(#SVGID_90_);stroke-width:10;stroke-linecap:round;stroke-miterlimit:10;}
	.st133{fill:none;stroke:#BE1622;stroke-linecap:round;stroke-linejoin:round;stroke-miterlimit:10;}
	.st134{fill-rule:evenodd;clip-rule:evenodd;fill:url(#SVGID_91_);}
	.st135{opacity:0.3;fill-rule:evenodd;clip-rule:evenodd;fill:url(#SVGID_92_);}
	.st136{fill-rule:evenodd;clip-rule:evenodd;fill:url(#SVGID_93_);}
	.st137{fill-rule:evenodd;clip-rule:evenodd;fill:url(#SVGID_94_);}
	.st138{fill-rule:evenodd;clip-rule:evenodd;fill:url(#SVGID_95_);}
	.st139{fill-rule:evenodd;clip-rule:evenodd;fill:url(#SVGID_96_);}
	.st140{fill-rule:evenodd;clip-rule:evenodd;fill:url(#SVGID_97_);}
	.st141{opacity:0.3;fill-rule:evenodd;clip-rule:evenodd;fill:url(#SVGID_98_);}
	.st142{fill-rule:evenodd;clip-rule:evenodd;fill:url(#SVGID_99_);}
	.st143{fill-rule:evenodd;clip-rule:evenodd;fill:url(#SVGID_100_);}
	.st144{fill-rule:evenodd;clip-rule:evenodd;fill:url(#SVGID_101_);}
	.st145{fill-rule:evenodd;clip-rule:evenodd;fill:url(#SVGID_102_);}
	.st146{fill:#F9B233;stroke:url(#SVGID_103_);stroke-width:4;stroke-miterlimit:10;}
	.st147{fill-rule:evenodd;clip-rule:evenodd;fill:url(#SVGID_104_);}
	.st148{fill-rule:evenodd;clip-rule:evenodd;fill:url(#SVGID_105_);}
	.st149{fill-rule:evenodd;clip-rule:evenodd;fill:url(#SVGID_106_);}
	.st150{fill:#F8C774;}
	.st151{fill:#832B19;}
	.st152{fill:#EFB561;}
	.st153{fill:#F6B75B;}
	.st154{fill:#F9E7A2;}
	.st155{fill:#CA3D4A;}
	.st156{fill:#DA6130;}
	.st157{fill:#E57D84;}
	.st158{fill:#15914B;}
	.st159{fill:#F5AC58;}
	.st160{fill:#503836;}
	.st161{fill:#AF333F;}
	.st162{fill:#F4B92D;}
	.st163{fill:#F9D876;}
	.st164{fill:#F6AB13;}
	.st165{fill:#6EB139;}
	.st166{fill:#CB3D34;}
	.st167{fill:#FBEF7A;}
	.st168{fill-rule:evenodd;clip-rule:evenodd;fill:#634E42;}
	.st169{fill-rule:evenodd;clip-rule:evenodd;fill:#52B475;}
	.st170{fill:none;stroke:#634E42;stroke-miterlimit:10;}
	.st171{fill:none;stroke:#52B475;stroke-miterlimit:10;}
	.st172{fill-rule:evenodd;clip-rule:evenodd;fill:#EA4D4B;}
	.st173{fill:none;stroke:#EA4D4B;stroke-miterlimit:10;}
	.st174{fill:#F4EBDA;}
	.st175{fill:#D69743;}
	.st176{opacity:0.5;fill:url(#SVGID_107_);}
	.st177{fill:#E14034;}
	.st178{fill:#111111;}
	.st179{fill:#343434;}
	.st180{fill:#A3A3A2;}
	.st181{opacity:0.5;fill:url(#SVGID_108_);}
	.st182{opacity:0.5;fill:url(#SVGID_109_);}
	.st183{opacity:0.5;fill:url(#SVGID_110_);}
	.st184{opacity:0.5;fill:url(#SVGID_111_);}
	.st185{opacity:0.5;fill:url(#SVGID_112_);}
	.st186{fill:#EE7769;}
	.st187{fill:#EB574C;}
	.st188{fill:#412561;}
	.st189{clip-path:url(#SVGID_114_);enable-background:new    ;}
	.st190{clip-path:url(#SVGID_116_);enable-background:new    ;}
	.st191{clip-path:url(#SVGID_118_);enable-background:new    ;}
	.st192{fill:url(#SVGID_119_);}
	.st193{fill:url(#SVGID_120_);}
</style>
<g>
	<g>
		
			<rect x="225.3" y="53.7" transform="matrix(0.4675 -0.884 0.884 0.4675 66.2103 241.0413)" class="st59" width="15.7" height="23.7"/>
		<path class="st60" d="M236.9,69.2c-3.7-1.6-6.9-3.9-10.5-5.8c-1.5-0.8-2.8-1.9-3.9-3.1l-3.5,6.6L240,78l3.3-6.3
			C241.2,71,239,70.1,236.9,69.2z"/>
		<path class="st61" d="M260.7,64.1c-2.6,4.9-8.7,6.8-13.6,4.2l-23.9-12.7c-4.9-2.6-6.8-8.7-4.2-13.6l0,0c2.6-4.9,8.7-6.8,13.6-4.2
			l23.9,12.6C261.4,53.1,263.3,59.2,260.7,64.1L260.7,64.1z"/>
		<path class="st60" d="M237.6,57.3c-7.8-4.4-14-10-16.2-18.2c-1,0.8-1.8,1.8-2.4,3c-2.6,4.9-0.7,11,4.2,13.6L247,68.3
			c3.7,1.9,8,1.4,11-1.1C250.8,65.2,244.4,61.1,237.6,57.3z"/>
		<g>
			<path class="st62" d="M221.8,50.2c-0.3,0.5-1,0.7-1.5,0.5l0,0c-0.5-0.3-0.8-1-0.5-1.5l5.5-10.4c0.3-0.5,1-0.8,1.5-0.5l0,0
				c0.5,0.3,0.7,1,0.5,1.5L221.8,50.2z"/>
			<path class="st62" d="M225,51.9c-0.3,0.5-1,0.7-1.5,0.5l0,0c-0.5-0.3-0.8-1-0.5-1.5l5.5-10.4c0.3-0.5,1-0.7,1.5-0.5l0,0
				c0.5,0.3,0.8,1,0.5,1.5L225,51.9z"/>
			<path class="st62" d="M228.3,53.6c-0.3,0.5-1,0.7-1.5,0.5l0,0c-0.5-0.3-0.8-1-0.5-1.5l5.5-10.4c0.3-0.5,1-0.7,1.5-0.5l0,0
				c0.5,0.3,0.7,1,0.5,1.5L228.3,53.6z"/>
			<path class="st62" d="M231.5,55.4c-0.3,0.5-1,0.7-1.5,0.5l0,0c-0.6-0.3-0.8-1-0.5-1.5L235,44c0.3-0.5,1-0.8,1.5-0.5l0,0
				c0.5,0.3,0.7,1,0.5,1.5L231.5,55.4z"/>
			<path class="st62" d="M234.8,57.1c-0.3,0.5-1,0.7-1.5,0.5l0,0c-0.5-0.3-0.8-1-0.5-1.5l5.5-10.4c0.3-0.5,1-0.7,1.5-0.5l0,0
				c0.5,0.3,0.7,1,0.5,1.5L234.8,57.1z"/>
			<path class="st62" d="M238,58.8c-0.3,0.5-1,0.7-1.5,0.5l0,0c-0.5-0.3-0.8-1-0.5-1.5l5.5-10.4c0.3-0.5,1-0.7,1.5-0.5l0,0
				c0.5,0.3,0.8,1,0.5,1.5L238,58.8z"/>
			<path class="st62" d="M241.3,60.5c-0.3,0.5-1,0.8-1.5,0.5l0,0c-0.5-0.3-0.7-1-0.5-1.5l5.5-10.4c0.3-0.5,1-0.8,1.5-0.5l0,0
				c0.6,0.3,0.8,1,0.5,1.5L241.3,60.5z"/>
			<path class="st62" d="M244.5,62.2c-0.3,0.5-1,0.7-1.5,0.5l0,0c-0.5-0.3-0.7-1-0.5-1.5l5.5-10.4c0.3-0.6,1-0.8,1.5-0.5l0,0
				c0.5,0.3,0.8,1,0.5,1.5L244.5,62.2z"/>
			<path class="st62" d="M247.8,64c-0.3,0.5-1,0.7-1.5,0.5l0,0c-0.5-0.3-0.8-1-0.5-1.5l5.5-10.4c0.3-0.5,1-0.8,1.5-0.5l0,0
				c0.5,0.3,0.7,1,0.5,1.5L247.8,64z"/>
			<path class="st62" d="M251,65.7c-0.3,0.5-1,0.8-1.5,0.5l0,0c-0.5-0.3-0.8-1-0.5-1.5l5.5-10.4c0.3-0.5,1-0.7,1.5-0.5l0,0
				c0.5,0.3,0.8,1,0.5,1.5L251,65.7z"/>
			<path class="st62" d="M254.3,67.4c-0.3,0.5-1,0.7-1.5,0.5l0,0c-0.5-0.3-0.7-1-0.5-1.5l5.5-10.4c0.3-0.5,1-0.8,1.5-0.5l0,0
				c0.5,0.3,0.7,1,0.5,1.5L254.3,67.4z"/>
		</g>
		<polygon class="st59" points="71.8,78 92.8,66.9 85.5,53.1 64.5,64.2 		"/>
		<path class="st60" d="M90,65.9c-3.9,1.8-6.5,2.9-10.8,3.1c-5.1,0.2-9.2-2-13.1-5.2c-0.1-0.1-0.2-0.2-0.3-0.3l-1.3,0.7L71.8,78
			l20.9-11.1l-1-2C91.2,65.3,90.6,65.6,90,65.9z"/>
		<path class="st61" d="M51.2,64.1c2.6,4.9,8.7,6.8,13.6,4.2l23.9-12.7c4.9-2.6,6.8-8.7,4.2-13.6l0,0c-2.6-4.9-8.7-6.8-13.6-4.2
			L55.4,50.5C50.5,53.1,48.6,59.2,51.2,64.1L51.2,64.1z"/>
		<path class="st60" d="M51,55.2c-1.3,2.8-1.4,6.1,0.2,9c2.6,4.9,8.7,6.8,13.6,4.2l23.9-12.7c4.1-2.2,6-6.7,5.1-11
			C81.4,55,65.7,63.4,51,55.2z"/>
		<g>
			<path class="st62" d="M90.1,50.2c0.3,0.5,1,0.7,1.5,0.5l0,0c0.5-0.3,0.7-1,0.5-1.5l-5.5-10.4c-0.3-0.5-1-0.8-1.5-0.5l0,0
				c-0.5,0.3-0.7,1-0.5,1.5L90.1,50.2z"/>
			<path class="st62" d="M86.8,51.9c0.3,0.5,1,0.7,1.5,0.5l0,0c0.5-0.3,0.8-1,0.5-1.5l-5.5-10.4c-0.3-0.5-1-0.7-1.5-0.5l0,0
				c-0.5,0.3-0.7,1-0.5,1.5L86.8,51.9z"/>
			<path class="st62" d="M83.6,53.6c0.3,0.5,1,0.7,1.5,0.5l0,0c0.5-0.3,0.8-1,0.5-1.5l-5.5-10.4c-0.3-0.5-1-0.7-1.5-0.5l0,0
				c-0.5,0.3-0.7,1-0.5,1.5L83.6,53.6z"/>
			<path class="st62" d="M80.3,55.4c0.3,0.5,1,0.7,1.5,0.5l0,0c0.5-0.3,0.8-1,0.5-1.5L76.8,44c-0.3-0.5-1-0.8-1.5-0.5l0,0
				c-0.5,0.3-0.8,1-0.5,1.5L80.3,55.4z"/>
			<path class="st62" d="M77.1,57.1c0.3,0.5,1,0.7,1.5,0.5l0,0c0.5-0.3,0.8-1,0.5-1.5l-5.5-10.4c-0.3-0.5-1-0.7-1.5-0.5l0,0
				c-0.5,0.3-0.8,1-0.5,1.5L77.1,57.1z"/>
			<path class="st62" d="M73.8,58.8c0.3,0.5,1,0.7,1.5,0.5l0,0c0.5-0.3,0.7-1,0.5-1.5l-5.5-10.4c-0.3-0.5-1-0.7-1.5-0.5l0,0
				c-0.5,0.3-0.7,1-0.5,1.5L73.8,58.8z"/>
			<path class="st62" d="M70.6,60.5c0.3,0.5,1,0.8,1.5,0.5l0,0c0.5-0.3,0.7-1,0.5-1.5l-5.5-10.4c-0.3-0.5-1-0.8-1.5-0.5l0,0
				c-0.5,0.3-0.7,1-0.5,1.5L70.6,60.5z"/>
			<path class="st62" d="M67.3,62.2c0.3,0.5,1,0.7,1.5,0.5l0,0c0.5-0.3,0.7-1,0.5-1.5l-5.5-10.4c-0.3-0.6-1-0.8-1.5-0.5l0,0
				c-0.5,0.3-0.7,1-0.5,1.5L67.3,62.2z"/>
			<path class="st62" d="M64.1,64c0.3,0.5,1,0.7,1.5,0.5l0,0c0.5-0.3,0.7-1,0.5-1.5l-5.5-10.4c-0.3-0.5-1-0.8-1.5-0.5l0,0
				c-0.5,0.3-0.8,1-0.5,1.5L64.1,64z"/>
			<path class="st62" d="M60.8,65.7c0.3,0.5,1,0.8,1.5,0.5l0,0c0.5-0.3,0.8-1,0.5-1.5l-5.5-10.4c-0.3-0.5-1-0.7-1.5-0.5l0,0
				c-0.5,0.3-0.8,1-0.5,1.5L60.8,65.7z"/>
			<path class="st62" d="M57.6,67.4c0.3,0.5,1,0.7,1.5,0.5l0,0c0.5-0.3,0.8-1,0.5-1.5L54.1,56c-0.3-0.5-1-0.8-1.5-0.5l0,0
				c-0.5,0.3-0.7,1-0.5,1.5L57.6,67.4z"/>
		</g>
		<rect x="134.5" y="29.4" class="st59" width="42.5" height="28.1"/>
		<rect x="134.5" y="29.4" class="st60" width="11.8" height="28.1"/>
		<path class="st63" d="M311.6,208.2c0,86-69.7,155.8-155.8,155.8C69.7,363.9,0,294.2,0,208.2c0-86,69.7-155.8,155.8-155.8
			C241.8,52.4,311.6,122.1,311.6,208.2z"/>
		<path class="st64" d="M119.2,68.7c-1.4,0.4-2.9,0.8-4.3,1.2c76.7-17.5,153.9,29,173.8,105.6c19.9,76.6-24.8,154.8-100.3,176.9
			c1.5-0.3,2.9-0.6,4.3-1c78.1-20.3,124.9-100,104.6-178.1C277,95.2,197.2,48.4,119.2,68.7z"/>
		<path class="st65" d="M287,208.2c0,72.5-58.7,131.2-131.2,131.2c-72.5,0-131.2-58.7-131.2-131.2C24.6,135.7,83.3,77,155.8,77
			C228.2,77,287,135.7,287,208.2z"/>
		<path class="st66" d="M279.9,208.2c0,68.6-55.6,124.2-124.2,124.2c-68.6,0-124.2-55.6-124.2-124.2C31.6,139.6,87.2,84,155.8,84
			C224.4,84,279.9,139.6,279.9,208.2z"/>
		<g>
			<rect x="148.8" y="291.2" class="st67" width="14" height="31.6"/>
			<rect x="148.8" y="93.5" class="st67" width="14" height="31.6"/>
		</g>
		<g>
			<rect x="238.8" y="201.1" class="st67" width="31.6" height="14.1"/>
			<rect x="41.2" y="201.1" class="st67" width="31.6" height="14.1"/>
		</g>
		<g>
			
				<rect x="98.4" y="108.2" transform="matrix(0.857 -0.5153 0.5153 0.857 -47.408 70.3814)" class="st61" width="9.4" height="24.9"/>
			
				<rect x="203.7" y="283.2" transform="matrix(0.8566 -0.516 0.516 0.8566 -122.6927 149.9773)" class="st61" width="9.4" height="24.9"/>
			
				<rect x="60.8" y="147.8" transform="matrix(0.4681 -0.8837 0.8837 0.4681 -106.7865 143.1668)" class="st61" width="9.4" height="24.9"/>
			
				<rect x="241.3" y="243.6" transform="matrix(0.4691 -0.8832 0.8832 0.4691 -95.4875 353.2246)" class="st61" width="9.4" height="24.9"/>
		</g>
		<g>
			
				<rect x="196" y="115.9" transform="matrix(0.5153 -0.857 0.857 0.5153 -2.3364 237.1113)" class="st61" width="24.9" height="9.4"/>
			
				<rect x="90.7" y="291" transform="matrix(0.5162 -0.8565 0.8565 0.5162 -203.361 231.3742)" class="st61" width="24.9" height="9.4"/>
			
				<rect x="233.6" y="155.6" transform="matrix(0.8835 -0.4685 0.4685 0.8835 -46.4241 133.933)" class="st61" width="24.9" height="9.4"/>
			
				<rect x="53.1" y="251.3" transform="matrix(0.8833 -0.4687 0.4687 0.8833 -112.3632 60.5871)" class="st61" width="24.9" height="9.4"/>
		</g>
		<path class="st61" d="M198.2,18.1c0,10-8.1,18.1-18.1,18.1h-48.6c-10,0-18.1-8.1-18.1-18.1l0,0c0-10,8.1-18.1,18.1-18.1h48.6
			C190.1,0,198.2,8.1,198.2,18.1L198.2,18.1z"/>
		<path class="st60" d="M151.3,24.6c-14.5-2.8-26.2-7.2-29.1-22c-5.3,3.2-8.8,8.9-8.8,15.5c0,10,8.1,18.1,18.1,18.1h48.6
			c7.8,0,14.3-4.9,16.9-11.8C182.1,29,166.5,27.6,151.3,24.6z"/>
		<g>
			<path class="st62" d="M124.8,28.6c0,1.1-0.9,2-2,2l0,0c-1.1,0-2-0.9-2-2v-21c0-1.1,0.9-2,2-2l0,0c1.1,0,2,0.9,2,2V28.6z"/>
			<path class="st62" d="M131.4,28.6c0,1.1-0.9,2-2,2l0,0c-1.1,0-2-0.9-2-2v-21c0-1.1,0.9-2,2-2l0,0c1.1,0,2,0.9,2,2V28.6z"/>
			<path class="st62" d="M138,28.6c0,1.1-0.9,2-2,2l0,0c-1.1,0-2-0.9-2-2v-21c0-1.1,0.9-2,2-2l0,0c1.1,0,2,0.9,2,2V28.6z"/>
			<path class="st62" d="M144.6,28.6c0,1.1-0.9,2-2,2l0,0c-1.1,0-2-0.9-2-2v-21c0-1.1,0.9-2,2-2l0,0c1.1,0,2,0.9,2,2V28.6z"/>
			<path class="st62" d="M151.2,28.6c0,1.1-0.9,2-2,2l0,0c-1.1,0-2-0.9-2-2v-21c0-1.1,0.9-2,2-2l0,0c1.1,0,2,0.9,2,2V28.6z"/>
			<path class="st62" d="M157.8,28.6c0,1.1-0.9,2-2,2l0,0c-1.1,0-2-0.9-2-2v-21c0-1.1,0.9-2,2-2l0,0c1.1,0,2,0.9,2,2V28.6z"/>
			<path class="st62" d="M164.4,28.6c0,1.1-0.9,2-2,2l0,0c-1.1,0-2-0.9-2-2v-21c0-1.1,0.9-2,2-2l0,0c1.1,0,2,0.9,2,2V28.6z"/>
			<path class="st62" d="M171,28.6c0,1.1-0.9,2-2,2l0,0c-1.1,0-2-0.9-2-2v-21c0-1.1,0.9-2,2-2l0,0c1.1,0,2,0.9,2,2V28.6z"/>
			<path class="st62" d="M177.6,28.6c0,1.1-0.9,2-2,2l0,0c-1.1,0-2-0.9-2-2v-21c0-1.1,0.9-2,2-2l0,0c1.1,0,2,0.9,2,2V28.6z"/>
			<path class="st62" d="M184.2,28.6c0,1.1-0.9,2-2,2l0,0c-1.1,0-2-0.9-2-2v-21c0-1.1,0.9-2,2-2l0,0c1.1,0,2,0.9,2,2V28.6z"/>
			<path class="st62" d="M190.8,28.6c0,1.1-0.9,2-2,2l0,0c-1.1,0-2-0.9-2-2v-21c0-1.1,0.9-2,2-2l0,0c1.1,0,2,0.9,2,2V28.6z"/>
		</g>
	</g>
</g>
</svg>
